a1/RESULT.vcd
$date
     Dec 10, 2024       09:30:17
$end

$version
 SystemC 3.0.1-Accellera --- Dec 10 2024 08:43:44
$end

$timescale
     1 ps
$end

$scope module SystemC $end
$var wire    1  aaaaa  clock       $end
$var wire    1  aaaab  start       $end
$var wire    1  aaaac  timeout       $end
$var wire   32  aaaad  count [31:0]  $end
$upscope $end
$enddefinitions  $end

$comment
All initial values are dumped below at time 0 sec = 0 timescale units.
$end

$dumpvars
0aaaaa
0aaaab
0aaaac
b1010 aaaad
$end

#5000
1aaaaa

#10000
0aaaaa

#15000
1aaaaa

#20000
0aaaaa

#25000
1aaaaa

#30000
0aaaaa
1aaaab

#35000
1aaaaa
b1001 aaaad

#40000
0aaaaa

#45000
1aaaaa
b1000 aaaad

#50000
0aaaaa

#55000
1aaaaa
b111 aaaad

#60000
0aaaaa

#65000
1aaaaa
b110 aaaad

#70000
0aaaaa

#75000
1aaaaa
b101 aaaad

#80000
0aaaaa

#85000
1aaaaa
b100 aaaad

#90000
0aaaaa
0aaaab

#95000
1aaaaa
b1010 aaaad

#100000
0aaaaa

#105000
1aaaaa

#110000
0aaaaa

#115000
1aaaaa

#120000
0aaaaa
1aaaab

#125000
1aaaaa
b1001 aaaad

#130000
0aaaaa

#135000
1aaaaa
b1000 aaaad

#140000
0aaaaa

#145000
1aaaaa
b111 aaaad

#150000
0aaaaa

#155000
1aaaaa
b110 aaaad

#160000
0aaaaa

#165000
1aaaaa
b101 aaaad

#170000
0aaaaa

#175000
1aaaaa
b100 aaaad

#180000
0aaaaa

#185000
1aaaaa
b11 aaaad

#190000
0aaaaa

#195000
1aaaaa
b10 aaaad

#200000
0aaaaa

#205000
1aaaaa
b1 aaaad

#210000
0aaaaa

#215000
1aaaaa
b0 aaaad

#220000
0aaaaa

#225000
1aaaaa
1aaaac

#230000
0aaaaa

#235000
1aaaaa

#240000
0aaaaa

#245000
1aaaaa

#250000
0aaaaa
0aaaab

#255000
1aaaaa
0aaaac
b1010 aaaad

